<?xml version="1.0" encoding="UTF-8" standalone="yes"?>
<probMWrapper>
    <probm>
        <prob>0.99439781</prob>
        <varId>1</varId>
        <varName>NAME</varName>
    </probm>
    <probm>
        <prob>0.98247962</prob>
        <varId>2</varId>
        <varName>VORNAME</varName>
    </probm>
    <probm>
        <prob>0.98772576</prob>
        <varId>3</varId>
        <varName>GEBURTSNAME</varName>
    </probm>
    <probm>
        <prob>0.99949391</prob>
        <varId>4</varId>
        <varName>GEBURTSTAG</varName>
    </probm>
    <probm>
        <prob>0.9995371</prob>
        <varId>5</varId>
        <varName>GEBURTSMONAT</varName>
    </probm>
    <probm>
        <prob>0.99971322</prob>
        <varId>6</varId>
        <varName>GEBURTSJAHR</varName>
    </probm>
    <probm>
        <prob>0.99999304</prob>
        <varId>7</varId>
        <varName>GESCHLECHT</varName>
    </probm>
    <probm>
        <prob>0.9915867</prob>
        <varId>8</varId>
        <varName>GEMEINDEKENNZIFFER</varName>
    </probm>
</probMWrapper>
